/Users/parveznawaz/java/projects/spring-pet-clinic/pet-clinic-data/src/test/java/parvez/springframework/springpetclinic/services/map/PetMapServiceTest.java
/Users/parveznawaz/java/projects/spring-pet-clinic/pet-clinic-data/src/test/java/parvez/springframework/springpetclinic/services/map/OwnerMapServiceTest.java
/Users/parveznawaz/java/projects/spring-pet-clinic/pet-clinic-data/src/test/java/parvez/springframework/springpetclinic/services/springdatajpa/OwnerSDJpaServiceTest.java
