-------------------------------------------------------------------------------
Test set: parvez.springframework.springpetclinic.SpringPetClinicApplicationTests
-------------------------------------------------------------------------------
Tests run: 1, Failures: 0, Errors: 0, Skipped: 0, Time elapsed: 12.644 s - in parvez.springframework.springpetclinic.SpringPetClinicApplicationTests
