-------------------------------------------------------------------------------
Test set: parvez.springframework.springpetclinic.controllers.OwnerControllerTest
-------------------------------------------------------------------------------
Tests run: 9, Failures: 0, Errors: 0, Skipped: 0, Time elapsed: 0.494 s - in parvez.springframework.springpetclinic.controllers.OwnerControllerTest
