-------------------------------------------------------------------------------
Test set: parvez.springframework.springpetclinic.services.map.OwnerMapServiceTest
-------------------------------------------------------------------------------
Tests run: 8, Failures: 0, Errors: 0, Skipped: 0, Time elapsed: 0 s - in parvez.springframework.springpetclinic.services.map.OwnerMapServiceTest
