/Users/parveznawaz/java/projects/spring-pet-clinic/pet-clinic-data/src/main/java/parvez/springframework/springpetclinic/repositories/PetTypeRepository.java
/Users/parveznawaz/java/projects/spring-pet-clinic/pet-clinic-data/src/main/java/parvez/springframework/springpetclinic/services/map/SpecialityMapService.java
/Users/parveznawaz/java/projects/spring-pet-clinic/pet-clinic-data/src/main/java/parvez/springframework/springpetclinic/services/PetTypeService.java
/Users/parveznawaz/java/projects/spring-pet-clinic/pet-clinic-data/src/main/java/parvez/springframework/springpetclinic/services/springdatajpa/VisitSDJpaService.java
/Users/parveznawaz/java/projects/spring-pet-clinic/pet-clinic-data/src/main/java/parvez/springframework/springpetclinic/services/OwnerService.java
/Users/parveznawaz/java/projects/spring-pet-clinic/pet-clinic-data/src/main/java/parvez/springframework/springpetclinic/services/springdatajpa/OwnerSDJpaService.java
/Users/parveznawaz/java/projects/spring-pet-clinic/pet-clinic-data/src/main/java/parvez/springframework/springpetclinic/services/springdatajpa/PetSDJpaService.java
/Users/parveznawaz/java/projects/spring-pet-clinic/pet-clinic-data/src/main/java/parvez/springframework/springpetclinic/model/Visit.java
/Users/parveznawaz/java/projects/spring-pet-clinic/pet-clinic-data/src/main/java/parvez/springframework/springpetclinic/services/map/OwnerMapService.java
/Users/parveznawaz/java/projects/spring-pet-clinic/pet-clinic-data/src/main/java/parvez/springframework/springpetclinic/model/Speciality.java
/Users/parveznawaz/java/projects/spring-pet-clinic/pet-clinic-data/src/main/java/parvez/springframework/springpetclinic/repositories/VisitRepository.java
/Users/parveznawaz/java/projects/spring-pet-clinic/pet-clinic-data/src/main/java/parvez/springframework/springpetclinic/services/map/VetServiceMap.java
/Users/parveznawaz/java/projects/spring-pet-clinic/pet-clinic-data/src/main/java/parvez/springframework/springpetclinic/model/Person.java
/Users/parveznawaz/java/projects/spring-pet-clinic/pet-clinic-data/src/main/java/parvez/springframework/springpetclinic/model/Vet.java
/Users/parveznawaz/java/projects/spring-pet-clinic/pet-clinic-data/src/main/java/parvez/springframework/springpetclinic/services/springdatajpa/VetSDJpaService.java
/Users/parveznawaz/java/projects/spring-pet-clinic/pet-clinic-data/src/main/java/parvez/springframework/springpetclinic/services/map/PetMapService.java
/Users/parveznawaz/java/projects/spring-pet-clinic/pet-clinic-data/src/main/java/parvez/springframework/springpetclinic/services/VisitService.java
/Users/parveznawaz/java/projects/spring-pet-clinic/pet-clinic-data/src/main/java/parvez/springframework/springpetclinic/repositories/PetRepository.java
/Users/parveznawaz/java/projects/spring-pet-clinic/pet-clinic-data/src/main/java/parvez/springframework/springpetclinic/services/SpecialtyService.java
/Users/parveznawaz/java/projects/spring-pet-clinic/pet-clinic-data/src/main/java/parvez/springframework/springpetclinic/model/BaseEntity.java
/Users/parveznawaz/java/projects/spring-pet-clinic/pet-clinic-data/src/main/java/parvez/springframework/springpetclinic/model/PetType.java
/Users/parveznawaz/java/projects/spring-pet-clinic/pet-clinic-data/src/main/java/parvez/springframework/springpetclinic/services/VetService.java
/Users/parveznawaz/java/projects/spring-pet-clinic/pet-clinic-data/src/main/java/parvez/springframework/springpetclinic/services/springdatajpa/SpecialitySDJpaService.java
/Users/parveznawaz/java/projects/spring-pet-clinic/pet-clinic-data/src/main/java/parvez/springframework/springpetclinic/services/map/AbstractMapService.java
/Users/parveznawaz/java/projects/spring-pet-clinic/pet-clinic-data/src/main/java/parvez/springframework/springpetclinic/repositories/SpecialtyRepository.java
/Users/parveznawaz/java/projects/spring-pet-clinic/pet-clinic-data/src/main/java/parvez/springframework/springpetclinic/model/Pet.java
/Users/parveznawaz/java/projects/spring-pet-clinic/pet-clinic-data/src/main/java/parvez/springframework/springpetclinic/services/springdatajpa/PetTypeSDJpaService.java
/Users/parveznawaz/java/projects/spring-pet-clinic/pet-clinic-data/src/main/java/parvez/springframework/springpetclinic/model/Owner.java
/Users/parveznawaz/java/projects/spring-pet-clinic/pet-clinic-data/src/main/java/parvez/springframework/springpetclinic/services/PetService.java
/Users/parveznawaz/java/projects/spring-pet-clinic/pet-clinic-data/src/main/java/parvez/springframework/springpetclinic/services/map/PetTypeMapService.java
/Users/parveznawaz/java/projects/spring-pet-clinic/pet-clinic-data/src/main/java/parvez/springframework/springpetclinic/repositories/OwnerRepository.java
/Users/parveznawaz/java/projects/spring-pet-clinic/pet-clinic-data/src/main/java/parvez/springframework/springpetclinic/services/CrudService.java
/Users/parveznawaz/java/projects/spring-pet-clinic/pet-clinic-data/src/main/java/parvez/springframework/springpetclinic/repositories/VetRepository.java
/Users/parveznawaz/java/projects/spring-pet-clinic/pet-clinic-data/src/main/java/parvez/springframework/springpetclinic/services/map/VisitMapService.java
